<svg width="217" height="182" viewBox="0 0 217 182" fill="none" xmlns="http://www.w3.org/2000/svg">
<path fill-rule="evenodd" clip-rule="evenodd" d="M39.8833 147.493C39.6837 151.239 40.1086 152.421 41.1475 152.148C42.1864 151.875 43.3005 152.047 43.5626 152.803C43.8247 153.559 44.184 151.742 44.3478 149.341C44.5115 146.939 43.4804 143.912 43.0258 145.586C42.5713 147.259 40.0474 145.872 39.8833 147.493Z" fill="#CB6E3B"/>
<path fill-rule="evenodd" clip-rule="evenodd" d="M82.7036 153.297C75.2142 156.471 73.6878 152.031 67.6615 152.888C61.6352 153.745 50.2906 165.491 57.422 170.758C64.5533 176.026 81.5794 176.187 81.5794 176.187L82.7036 153.297Z" fill="#FDC395"/>
<path fill-rule="evenodd" clip-rule="evenodd" d="M209.031 167.468C207.388 165.758 206.615 165.47 206.203 166.12C205.79 166.77 205.13 167.268 204.641 167.078C204.152 166.888 204.812 167.852 205.848 168.966C206.883 170.08 208.831 170.85 208.287 169.899C207.742 168.947 209.702 168.248 209.031 167.468Z" fill="#CB6E3B"/>
<path fill-rule="evenodd" clip-rule="evenodd" d="M201.284 166.194C198.797 167.507 198.224 168.276 198.847 168.927C199.47 169.577 199.841 170.455 199.47 170.94C199.099 171.425 200.418 170.979 202.027 170.164C203.636 169.348 205.13 167.419 203.862 167.74C202.593 168.06 202.393 165.682 201.284 166.194Z" fill="#CB6E3B"/>
<path fill-rule="evenodd" clip-rule="evenodd" d="M195.088 170.042C191.494 171.11 190.547 171.961 191.201 172.964C191.855 173.967 192.119 175.201 191.51 175.736C190.9 176.27 192.743 176.03 195.06 175.383C197.378 174.737 199.825 172.616 198.08 172.707C196.335 172.799 196.672 169.662 195.088 170.042Z" fill="#CB6E3B"/>
<path fill-rule="evenodd" clip-rule="evenodd" d="M207.415 173.769C208.544 172.647 208.728 172.127 208.285 171.859C207.842 171.592 207.498 171.157 207.619 170.828C207.74 170.499 207.1 170.953 206.364 171.66C205.628 172.367 205.136 173.68 205.769 173.303C206.402 172.927 206.9 174.227 207.415 173.769Z" fill="#CB6E3B"/>
<path fill-rule="evenodd" clip-rule="evenodd" d="M203.537 175.171C204.535 174.972 204.822 174.722 204.693 174.345C204.563 173.968 204.546 173.529 204.731 173.373C204.915 173.217 204.417 173.213 203.775 173.327C203.134 173.441 202.394 174.059 202.86 174.109C203.326 174.16 203.101 175.228 203.537 175.171L203.537 175.171Z" fill="#CB6E3B"/>
<path fill-rule="evenodd" clip-rule="evenodd" d="M199.779 160.845C204.03 154.108 199.07 148.548 194.043 147.121C189.017 145.693 177.875 149.561 171.329 151.667C164.783 153.774 168.471 144.999 161.142 145.12C153.814 145.241 148.772 156.638 148.772 156.638L170.461 172.626L190.57 171.177L199.779 160.845Z" fill="#FDC395"/>
<path fill-rule="evenodd" clip-rule="evenodd" d="M100.421 0.00271203C104.292 1.95647 107.094 5.41583 110.722 7.73319C134.515 26.3376 158.15 45.3107 179.312 66.932C187.921 75.4683 196.636 84.0352 203.668 93.9574C204.168 95.1824 202.813 96.32 201.641 96.0553C192.067 97.1941 182.404 97.1752 172.81 98.078C165.352 98.7133 157.946 99.813 150.51 100.642C132.789 102.871 115.21 106.067 97.6179 109.126C78.7074 112.462 59.8233 115.993 40.8247 118.789C38.2845 118.985 35.2032 118.757 33.5608 116.539C32.761 114.309 34.6924 112.434 35.4125 110.477C42.2295 96.1064 49.559 81.9825 57.361 68.1236C64.2474 55.8 70.6911 43.2251 77.9708 31.1248C82.5068 23.5384 87.4533 16.2036 92.7478 9.12817C94.9026 6.13726 96.8397 2.92698 99.3466 0.230542C99.6804 0.0715727 100.05 -0.0169627 100.421 0.00271203Z" fill="#FD9C50"/>
<path fill-rule="evenodd" clip-rule="evenodd" d="M179.77 176.375H66.6636L97.5417 154.347L116.587 160.725L138.717 158.22L151.779 160.141L179.77 176.375Z" fill="#B96335"/>
<path fill-rule="evenodd" clip-rule="evenodd" d="M149.49 165.524C145.794 162.769 144.058 162.632 143.13 164.37C142.201 166.108 140.718 167.668 139.619 167.566C138.519 167.464 140.004 169.194 142.332 171.013C144.659 172.833 149.04 173.269 147.816 171.49C146.592 169.711 150.998 166.832 149.49 165.524Z" fill="#FD9C50"/>
<path fill-rule="evenodd" clip-rule="evenodd" d="M133.013 159.481C128.44 160.049 127.091 161.151 127.62 163.05C128.149 164.949 128.154 167.102 127.289 167.79C126.424 168.477 128.692 168.699 131.63 168.403C134.568 168.107 138.035 165.39 135.922 164.952C133.809 164.513 135.006 159.383 133.013 159.481Z" fill="#FD9C50"/>
<path d="M75.3398 107.272C67.7894 144.377 92.252 162.881 122.955 165.419C144.875 164.053 165.92 151.95 168.458 123.159C170.456 100.489 154.644 75.1264 127.634 73.1001C99.9395 72.5612 81.4321 91.6856 75.3398 107.272Z" fill="#FD9C50"/>
<path fill-rule="evenodd" clip-rule="evenodd" d="M157.917 170.047C154.855 168.242 153.555 168.324 153.077 169.823C152.598 171.321 151.688 172.737 150.864 172.777C150.039 172.816 151.344 174.042 153.282 175.246C155.22 176.451 158.51 176.317 157.393 175.023C156.275 173.73 159.188 170.931 157.917 170.047Z" fill="#FD9C50"/>
<path fill-rule="evenodd" clip-rule="evenodd" d="M150.796 46.0871C131.618 33.7989 82.1746 41.1745 68.0318 55.9693C68.0318 55.9693 117.766 99.659 126.746 98.6933C135.725 97.7277 154.998 57.6609 150.796 46.0871Z" fill="#FEE1CB"/>
<path fill-rule="evenodd" clip-rule="evenodd" d="M68.0319 55.9693C59.1897 72.008 43.4988 105.557 39.609 114.197C55.9331 110.03 113.648 99.5271 126.746 98.6933C106.336 82.5466 88.6754 64.7668 68.0319 55.9693Z" fill="#F47721"/>
<path d="M22.5744 91.7787C24.9178 91.782 27.2369 92.2543 29.3954 93.1679C31.5539 94.0815 33.5081 95.4179 35.1434 97.0986C38.397 100.443 40.1905 104.944 40.1293 109.613C40.0682 114.281 38.1575 118.734 34.8174 121.992C31.4773 125.25 26.9815 127.045 22.3191 126.984C17.6566 126.923 13.2094 125.01 9.95575 121.665C6.70213 118.321 4.90861 113.82 4.96973 109.151C5.03085 104.483 6.9416 100.03 10.2817 96.7723C13.5708 93.5644 17.9828 91.7721 22.5744 91.7787ZM22.5791 93.4256C18.4152 93.4183 14.4137 95.043 11.431 97.9522C8.40345 100.905 6.67141 104.941 6.61587 109.173C6.56032 113.404 8.1858 117.485 11.1348 120.516C12.5951 122.017 14.3364 123.216 16.2593 124.043C18.1821 124.87 20.2489 125.31 22.3416 125.338C24.4343 125.365 26.5119 124.98 28.4558 124.203C30.3997 123.427 32.1718 122.275 33.671 120.813C35.1702 119.351 36.367 117.607 37.1932 115.682C38.0194 113.756 38.4587 111.687 38.4861 109.592C38.5136 107.496 38.1286 105.416 37.3531 103.47C36.5776 101.523 35.4268 99.749 33.9664 98.248C32.4849 96.7252 30.7143 95.5141 28.7589 94.686C26.8034 93.8579 24.7023 93.4293 22.5791 93.4256Z" fill="#C1C1C1"/>
<path d="M33.6563 120.809C27.3514 126.958 17.2617 126.826 11.1202 120.513C4.97866 114.2 5.11105 104.098 11.4159 97.9483C17.7207 91.799 27.8105 91.9316 33.952 98.2444C40.0935 104.557 39.9611 114.66 33.6563 120.809Z" fill="#B5FCFF" fill-opacity="0.656266"/>
<path d="M33.4287 120.286C31.4193 122.245 31.0307 125.012 32.0094 126.018C32.9881 127.024 36.1778 126.987 38.1872 125.027C40.1966 123.067 40.2423 119.948 39.2636 118.942C38.2849 117.936 35.4381 118.326 33.4287 120.286Z" fill="#C1C1C1"/>
<path d="M35.4725 122.272C32.9042 124.836 36.9221 131.132 43.9707 138.492C51.0192 145.852 58.3069 150.179 60.3107 148.193C62.3145 146.208 58.2532 138.685 51.2047 131.325C44.1561 123.965 38.983 118.767 35.4725 122.272Z" fill="#C39F69"/>
<path fill-rule="evenodd" clip-rule="evenodd" d="M42.0032 138.283C41.1489 140.571 41.1879 141.403 41.8977 141.467C42.6076 141.532 42.7117 141.889 43.0738 142.25C43.4232 142.598 44.3019 142.113 44.8722 140.655C45.4424 139.197 45.3693 138.006 44.3605 137.806C43.1438 137.565 42.422 137.311 42.0033 138.283H42.0032Z" fill="#CB6E3B"/>
<path d="M15.2067 103.449C17.2788 100.811 22.9257 101.684 20.6217 99.7601C18.3176 97.836 14.692 98.3525 12.5236 100.914C10.3553 103.475 9.74387 108.442 12.7693 109.035C16.3382 109.735 13.6919 105.377 15.2067 103.449Z" fill="white"/>
<path fill-rule="evenodd" clip-rule="evenodd" d="M46.6801 132.744C44.9225 133.835 44.5101 134.426 44.9362 134.866C45.3623 135.307 45.2423 135.609 45.2872 136.058C45.3305 136.491 46.1552 136.649 47.2923 135.968C48.4294 135.287 49.0083 134.43 48.4596 133.731C47.7978 132.887 47.4631 132.311 46.6801 132.744L46.6801 132.744Z" fill="#CB6E3B"/>
<path fill-rule="evenodd" clip-rule="evenodd" d="M52.7358 131.856C51.1364 131.496 50.5783 131.616 50.582 132.135C50.5851 132.653 50.3523 132.768 50.1331 133.068C49.9218 133.359 50.307 133.938 51.3283 134.186C52.3497 134.434 53.1473 134.249 53.2149 133.5C53.2966 132.597 53.4191 132.049 52.7358 131.856V131.856Z" fill="#CB6E3B"/>
<path fill-rule="evenodd" clip-rule="evenodd" d="M112.235 147.578C104.531 141.603 96.1158 136.713 91.6514 139.866C87.1871 143.019 73.1081 160.865 65.224 163.877C57.3399 166.89 42.7435 167.038 42.4168 155.212C42.0902 143.387 43.5379 136.08 48.4103 133.753C53.2827 131.427 55.4693 136.693 56.6896 137.901C58.1007 133.746 56.2179 131.555 54.0302 129.74C51.8425 127.924 45.0513 128.447 42.0331 131.915C39.015 135.382 33.8549 140.067 32.4988 154.924C31.728 163.368 34.5877 172.737 45.5653 179.088C56.5428 185.439 67.2442 180.386 78.8228 173.638C100.192 161.184 103.454 175.92 108.497 176.154C116.515 176.525 115.897 176.537 118.46 174.059C127.582 166.17 117.817 156.147 112.235 147.578Z" fill="#FD9C50"/>
<path fill-rule="evenodd" clip-rule="evenodd" d="M104.418 141.029C103.014 139.821 105.908 136.192 106.882 135.466C107.856 134.74 106.568 142.359 104.418 141.029Z" fill="#D35034" fill-opacity="0.442924"/>
<path fill-rule="evenodd" clip-rule="evenodd" d="M107.506 142.854C106.036 141.252 109.02 135.76 110.028 134.623C111.035 133.487 109.751 144.557 107.506 142.854Z" fill="#D35034" fill-opacity="0.442924"/>
<path fill-rule="evenodd" clip-rule="evenodd" d="M110.791 142.556C109.321 140.954 112.305 135.462 113.313 134.326C114.32 133.189 113.036 144.259 110.791 142.556Z" fill="#D35034" fill-opacity="0.442924"/>
<path fill-rule="evenodd" clip-rule="evenodd" d="M145.911 137.34C144.442 135.738 147.426 130.246 148.433 129.11C149.44 127.973 148.156 139.043 145.911 137.34Z" fill="#D35034" fill-opacity="0.442924"/>
<path fill-rule="evenodd" clip-rule="evenodd" d="M148.888 137.077C147.419 135.475 150.403 129.983 151.41 128.847C152.418 127.71 151.133 138.781 148.888 137.077Z" fill="#D35034" fill-opacity="0.442924"/>
<path fill-rule="evenodd" clip-rule="evenodd" d="M152.16 135.822C150.928 134.585 153.445 130.517 154.293 129.683C155.142 128.85 154.044 137.151 152.16 135.822Z" fill="#D35034" fill-opacity="0.442924"/>
<path fill-rule="evenodd" clip-rule="evenodd" d="M139.453 143.179C135.084 145.788 127.916 148.105 121.577 144.905C125.03 150.055 127.098 152.508 130.08 152.346C134.41 152.137 138.076 146.303 139.453 143.179Z" fill="#91332B" stroke="#7F0505" stroke-width="0.58017" stroke-linecap="square"/>
<path fill-rule="evenodd" clip-rule="evenodd" d="M197.344 91.33C187.32 79.5861 159.996 52.5359 150.796 46.0871C146.586 60.6216 131.58 93.3524 126.746 98.6932C142.845 97.0015 189.549 91.3602 197.344 91.33Z" fill="#9C7F69"/>
<path fill-rule="evenodd" clip-rule="evenodd" d="M150.796 46.0871C140.762 36.7468 110.203 11.8228 101.701 6.13104C93.8949 16.8613 73.1558 46.3128 68.0318 55.9693C86.281 49.7789 130.874 38.5401 150.796 46.0871Z" fill="#62442E"/>
<path fill-rule="evenodd" clip-rule="evenodd" d="M152.705 147.866C163.023 145.827 162.694 157.279 167.509 161.163C172.324 165.046 188.853 163.859 195.069 159.981C201.003 156.278 210.41 155.615 215.339 161.963C218.278 165.75 218.415 176.632 206.453 176.365C203.978 176.31 202.787 175.332 200.524 174.431C207.437 175.707 211.774 169.173 207.892 166.967C201.339 163.244 200.722 173.914 184.792 175.79C168.862 177.667 162.882 174.867 160.756 174.638C158.63 174.408 129.824 159.678 129.824 159.678L152.705 147.866Z" fill="#FD9C50"/>
<path fill-rule="evenodd" clip-rule="evenodd" d="M87.0559 19.3303C85.8406 20.896 84.9004 22.056 84.3273 22.9996C83.4423 24.4566 85.324 26.7398 86.8359 24.7578C87.67 23.7275 88.7009 22.3982 89.6912 20.8665C90.6814 19.3348 88.2717 17.7644 87.0559 19.3303Z" fill="#FFDDC2"/>
<path fill-rule="evenodd" clip-rule="evenodd" d="M86.4263 149.007C84.4287 150.494 84.1424 151.5 83.7425 152.346C83.0645 153.78 84.7228 155.749 86.2099 153.945C87.0303 153.008 88.0442 151.798 89.0183 150.405C89.9922 149.011 87.6221 147.582 86.4263 149.007Z" fill="#FFDDC2"/>
<path fill-rule="evenodd" clip-rule="evenodd" d="M43.7823 131.11C42.8095 131.86 42.21 132.595 42.0079 133.388C41.7432 134.427 42.6561 135.71 43.6392 134.479C44.0623 133.884 44.6365 133.094 45.4961 132.064C46.1401 131.113 44.573 130.138 43.7823 131.11Z" fill="#FFDDC2"/>
<path fill-rule="evenodd" clip-rule="evenodd" d="M63.6991 155.752C62.0442 156.943 61.807 157.748 61.4757 158.425C60.914 159.573 62.2879 161.15 63.5198 159.706C64.1994 158.955 65.0395 157.987 65.8464 156.871C66.6533 155.755 64.6898 154.611 63.6991 155.752Z" fill="#FFDDC2"/>
<path fill-rule="evenodd" clip-rule="evenodd" d="M202.231 159.671C200.405 160.065 199.909 160.664 199.381 161.118C198.486 161.888 199.055 163.756 200.621 162.986C201.468 162.601 202.53 162.089 203.618 161.44C204.706 160.79 203.483 159.07 202.231 159.671Z" fill="#FFDDC2"/>
<path fill-rule="evenodd" clip-rule="evenodd" d="M92.3788 158.201C88.6669 160.934 88.0288 162.557 89.4175 163.954C90.8063 165.351 91.8618 167.228 91.443 168.25C91.0242 169.273 93.1107 168.357 95.5292 166.66C97.9476 164.964 99.645 160.897 97.5878 161.549C95.5307 162.2 94.0694 157.14 92.3788 158.201Z" fill="#FD9C50"/>
<path fill-rule="evenodd" clip-rule="evenodd" d="M85.3022 166.988C82.1089 168.498 81.4042 169.598 82.2719 170.796C83.1397 171.994 83.6891 173.498 83.2323 174.189C82.7755 174.88 84.4866 174.483 86.5558 173.561C88.625 172.639 90.4658 169.895 88.8128 170.103C87.1597 170.311 86.7318 166.434 85.3022 166.988Z" fill="#FD9C50"/>
<path fill-rule="evenodd" clip-rule="evenodd" d="M77.942 171.096C74.7739 171.423 73.8553 172.065 74.2554 173.172C74.6556 174.279 74.6954 175.535 74.1063 175.935C73.517 176.335 75.0967 176.466 77.1334 176.296C79.1703 176.126 81.533 174.545 80.0573 174.287C78.5816 174.03 79.3255 171.041 77.9421 171.096H77.942Z" fill="#FD9C50"/>
<path d="M141.087 131.425C140.082 131.558 139.284 129.969 139.305 127.874C139.327 125.78 140.158 123.974 141.163 123.841C142.168 123.707 142.966 125.297 142.945 127.391C142.923 129.485 142.092 131.291 141.087 131.425Z" fill="#4E3B3A" stroke="#2F2828" stroke-width="0.803698"/>
<path d="M118.999 134.409C117.994 134.542 117.197 132.952 117.218 130.858C117.239 128.764 118.071 126.958 119.076 126.824C120.081 126.691 120.878 128.28 120.857 130.375C120.836 132.469 120.004 134.275 118.999 134.409Z" fill="#4E3B3A" stroke="#2F2828" stroke-width="0.803699"/>
<path fill-rule="evenodd" clip-rule="evenodd" d="M99.9298 166.962C96.3164 165.614 94.9122 165.878 94.6201 167.424C94.3279 168.969 93.5525 170.494 92.6595 170.649C91.7665 170.804 93.3762 171.829 95.6731 172.744C97.97 173.659 101.536 173.063 100.12 171.945C98.7041 170.826 101.451 167.655 99.9298 166.962Z" fill="#FD9C50"/>
<path fill-rule="evenodd" clip-rule="evenodd" d="M109.858 170.459C105.996 169.18 104.495 169.43 104.183 170.896C103.87 172.363 103.041 173.809 102.087 173.956C101.132 174.104 102.853 175.076 105.308 175.944C107.763 176.812 111.575 176.247 110.062 175.186C108.548 174.124 111.484 171.116 109.858 170.459Z" fill="#FD9C50"/>
</svg>
